<svg xmlns="http://www.w3.org/2000/svg" width="13.996" height="14.024" viewBox="0 0 13.996 14.024">
  <path id="Icon_feather-phone" data-name="Icon feather-phone" d="M3.168,13.5V15.61A1.407,1.407,0,0,0,4.7,17.018a13.926,13.926,0,0,0,6.073-2.16A13.722,13.722,0,0,0,15,10.635a13.927,13.927,0,0,0,2.16-6.1A1.407,1.407,0,0,0,15.758,3H13.647a1.407,1.407,0,0,0-1.407,1.21,9.036,9.036,0,0,1-.493,1.977,1.407,1.407,0,0,0,.317,1.485l.894.894a11.259,11.259,0,0,1-4.222,4.222l-.894-.894a1.407,1.407,0,0,0-1.485-.317,9.036,9.036,0,0,1-1.977.493A1.407,1.407,0,0,0,3.168,13.5Z" transform="translate(-3.168 -3)" fill="#000"/>
</svg>
