<svg xmlns="http://www.w3.org/2000/svg" width="112" height="112" viewBox="0 0 112 112">
  <g id="Group_230" data-name="Group 230" transform="translate(-904 -2477)">
    <g id="Ellipse_8" data-name="Ellipse 8" transform="translate(904 2477)" fill="none" stroke="#fff" stroke-width="2">
      <circle cx="56" cy="56" r="56" stroke="none"/>
      <circle cx="56" cy="56" r="55" fill="none"/>
    </g>
    <g id="Polygon_1" data-name="Polygon 1" transform="translate(976 2520) rotate(90)" fill="none">
      <path d="M11.775,2.939a2,2,0,0,1,3.45,0L25.232,19.988A2,2,0,0,1,23.507,23H3.493a2,2,0,0,1-1.725-3.012Z" stroke="none"/>
      <path d="M 13.49999904632568 3.95100212097168 L 3.492979049682617 21.00000190734863 L 23.50701904296875 21.00000190734863 L 13.49999904632568 3.95100212097168 M 13.49999904632568 1.95100212097168 C 14.169189453125 1.95100212097168 14.83837890625 2.280200958251953 15.22482872009277 2.938602447509766 L 25.23184967041016 19.98760223388672 C 26.01442909240723 21.32088088989258 25.05300903320312 23.00000190734863 23.50701904296875 23.00000190734863 L 3.492979049682617 23.00000190734863 C 1.946998596191406 23.00000190734863 0.9855690002441406 21.32088088989258 1.768148422241211 19.98760223388672 L 11.77516937255859 2.938602447509766 C 12.16161918640137 2.280200958251953 12.83080863952637 1.95100212097168 13.49999904632568 1.95100212097168 Z" stroke="none" fill="#fff"/>
    </g>
  </g>
</svg>
