<svg xmlns="http://www.w3.org/2000/svg" width="255.358" height="83.528" viewBox="0 0 255.358 83.528">
  <g id="Group_227" data-name="Group 227" transform="translate(-181.427 -199.942)">
    <g id="Group_135" data-name="Group 135" transform="translate(213.064 270.39)">
      <path id="Path_244" data-name="Path 244" d="M250.119,336.382a3.805,3.805,0,0,1-.4,1.832,3.307,3.307,0,0,1-1.087,1.2,4.784,4.784,0,0,1-1.578.667,8.085,8.085,0,0,1-1.858.21H243.7v4.682h-3V332.559h4.559a8.552,8.552,0,0,1,1.9.2,4.491,4.491,0,0,1,1.543.648,3.152,3.152,0,0,1,1.035,1.176A3.88,3.88,0,0,1,250.119,336.382Zm-3,.018a1.338,1.338,0,0,0-.176-.719,1.227,1.227,0,0,0-.473-.438,2.048,2.048,0,0,0-.675-.211,5.7,5.7,0,0,0-.78-.052H243.7v2.929h1.263a4.488,4.488,0,0,0,.806-.07,2.148,2.148,0,0,0,.693-.246,1.307,1.307,0,0,0,.482-.464A1.382,1.382,0,0,0,247.121,336.4Z" transform="translate(-240.703 -332.226)" fill="#2e2e2d"/>
      <path id="Path_245" data-name="Path 245" d="M266.658,344.973V332.559h3.016v9.8h4.8v2.613Z" transform="translate(-252.805 -332.226)" fill="#2e2e2d"/>
      <path id="Path_246" data-name="Path 246" d="M295.951,344.973l-.964-2.437h-4.8l-.912,2.437h-3.262l5.208-12.414h2.91l5.155,12.414Zm-3.332-9.1-1.578,4.261h3.121Z" transform="translate(-261.828 -332.226)" fill="#2e2e2d"/>
      <path id="Path_247" data-name="Path 247" d="M323.416,335.509a2.7,2.7,0,0,0-1.008-.78,2.84,2.84,0,0,0-1.2-.289,3.563,3.563,0,0,0-.605.052,1.564,1.564,0,0,0-.552.2,1.347,1.347,0,0,0-.412.386,1.024,1.024,0,0,0-.167.605.978.978,0,0,0,.132.526,1.168,1.168,0,0,0,.385.368,3.405,3.405,0,0,0,.605.289q.351.132.789.272.631.211,1.315.464a4.939,4.939,0,0,1,1.245.676,3.547,3.547,0,0,1,.93,1.043,3.006,3.006,0,0,1,.368,1.552,4.053,4.053,0,0,1-.395,1.85,3.689,3.689,0,0,1-1.061,1.289,4.538,4.538,0,0,1-1.526.754,6.427,6.427,0,0,1-1.771.246,7.317,7.317,0,0,1-2.578-.465,5.462,5.462,0,0,1-2.069-1.324l1.964-2a3.607,3.607,0,0,0,1.2.938,3.257,3.257,0,0,0,1.482.377,2.977,2.977,0,0,0,.649-.07,1.6,1.6,0,0,0,.552-.227,1.15,1.15,0,0,0,.377-.421,1.33,1.33,0,0,0,.14-.632,1,1,0,0,0-.176-.6,1.711,1.711,0,0,0-.5-.447,4.058,4.058,0,0,0-.807-.368q-.482-.166-1.1-.36a10.538,10.538,0,0,1-1.166-.456,3.9,3.9,0,0,1-1.017-.675,3.108,3.108,0,0,1-.719-1,3.38,3.38,0,0,1-.272-1.429,3.514,3.514,0,0,1,.421-1.771,3.659,3.659,0,0,1,1.1-1.209,4.73,4.73,0,0,1,1.543-.693,6.991,6.991,0,0,1,1.736-.219,6.456,6.456,0,0,1,2.148.385,5.551,5.551,0,0,1,1.92,1.14Z" transform="translate(-275.738 -331.95)" fill="#2e2e2d"/>
      <path id="Path_248" data-name="Path 248" d="M346.362,335.119v9.855h-3v-9.855h-3.508v-2.56h10.013v2.56Z" transform="translate(-286.936 -332.226)" fill="#2e2e2d"/>
      <path id="Path_249" data-name="Path 249" d="M366.107,344.973V332.559h3.016v12.414Z" transform="translate(-299.176 -332.226)" fill="#2e2e2d"/>
      <path id="Path_250" data-name="Path 250" d="M389.867,344.463a6.643,6.643,0,0,1-2.788.552,7.291,7.291,0,0,1-2.657-.473,6.133,6.133,0,0,1-3.516-3.42,7.271,7.271,0,0,1,.009-5.365,6.007,6.007,0,0,1,1.429-2.061,6.339,6.339,0,0,1,2.139-1.307,7.677,7.677,0,0,1,5.234.009,4.958,4.958,0,0,1,2.061,1.359l-2.034,2.034a2.522,2.522,0,0,0-1.1-.859,3.672,3.672,0,0,0-1.4-.281,3.556,3.556,0,0,0-1.446.289,3.408,3.408,0,0,0-1.131.8,3.649,3.649,0,0,0-.736,1.2,4.238,4.238,0,0,0-.263,1.517,4.355,4.355,0,0,0,.263,1.543,3.6,3.6,0,0,0,.727,1.2,3.28,3.28,0,0,0,1.114.78,3.542,3.542,0,0,0,1.42.28,3.306,3.306,0,0,0,1.561-.351,3.027,3.027,0,0,0,1.07-.912l2.087,1.964A5.91,5.91,0,0,1,389.867,344.463Z" transform="translate(-305.84 -331.935)" fill="#2e2e2d"/>
      <path id="Path_251" data-name="Path 251" d="M428.089,335.509a2.7,2.7,0,0,0-1.009-.78,2.836,2.836,0,0,0-1.2-.289,3.547,3.547,0,0,0-.6.052,1.569,1.569,0,0,0-.553.2,1.357,1.357,0,0,0-.411.386,1.025,1.025,0,0,0-.167.605.972.972,0,0,0,.132.526,1.172,1.172,0,0,0,.385.368,3.407,3.407,0,0,0,.605.289q.351.132.789.272.632.211,1.315.464a4.933,4.933,0,0,1,1.245.676,3.546,3.546,0,0,1,.93,1.043,3.005,3.005,0,0,1,.368,1.552,4.059,4.059,0,0,1-.394,1.85,3.685,3.685,0,0,1-1.062,1.289,4.529,4.529,0,0,1-1.525.754,6.429,6.429,0,0,1-1.771.246,7.315,7.315,0,0,1-2.577-.465,5.456,5.456,0,0,1-2.07-1.324l1.964-2a3.621,3.621,0,0,0,1.2.938,3.261,3.261,0,0,0,1.482.377,2.976,2.976,0,0,0,.649-.07,1.605,1.605,0,0,0,.552-.227,1.148,1.148,0,0,0,.377-.421,1.33,1.33,0,0,0,.14-.632,1,1,0,0,0-.175-.6,1.71,1.71,0,0,0-.5-.447,4.045,4.045,0,0,0-.807-.368q-.482-.166-1.1-.36a10.484,10.484,0,0,1-1.166-.456,3.892,3.892,0,0,1-1.017-.675,3.107,3.107,0,0,1-.719-1,3.38,3.38,0,0,1-.272-1.429,3.513,3.513,0,0,1,.421-1.771,3.663,3.663,0,0,1,1.1-1.209,4.738,4.738,0,0,1,1.543-.693,6.992,6.992,0,0,1,1.736-.219,6.458,6.458,0,0,1,2.148.385,5.551,5.551,0,0,1,1.92,1.14Z" transform="translate(-324.544 -331.95)" fill="#2e2e2d"/>
      <path id="Path_252" data-name="Path 252" d="M456.8,342.335a4.46,4.46,0,0,1-1.079,1.578,4.986,4.986,0,0,1-1.692,1.026,6.8,6.8,0,0,1-4.41,0,4.8,4.8,0,0,1-1.666-1.026,4.459,4.459,0,0,1-1.052-1.578,5.456,5.456,0,0,1-.368-2.043v-7.733h2.981v7.487a3.469,3.469,0,0,0,.131.965,2.473,2.473,0,0,0,.4.815,1.891,1.891,0,0,0,.719.57,2.865,2.865,0,0,0,2.157,0,1.971,1.971,0,0,0,.727-.57,2.273,2.273,0,0,0,.4-.815,3.73,3.73,0,0,0,.122-.965v-7.487h3v7.733A5.354,5.354,0,0,1,456.8,342.335Z" transform="translate(-336.677 -332.226)" fill="#2e2e2d"/>
      <path id="Path_253" data-name="Path 253" d="M482.584,344.973l-2.7-4.927h-1.022v4.927h-2.928V332.559h4.735a8.258,8.258,0,0,1,1.745.184,4.558,4.558,0,0,1,1.526.622,3.265,3.265,0,0,1,1.078,1.158,3.621,3.621,0,0,1,.4,1.789,3.3,3.3,0,0,1-.684,2.122,3.725,3.725,0,0,1-1.894,1.228l3.244,5.313Zm-.123-8.609a1.24,1.24,0,0,0-.185-.71,1.272,1.272,0,0,0-.475-.421,2.11,2.11,0,0,0-.652-.2,4.885,4.885,0,0,0-.7-.052h-1.6v2.894h1.427a4.768,4.768,0,0,0,.758-.062,2.407,2.407,0,0,0,.7-.219,1.272,1.272,0,0,0,.722-1.227Z" transform="translate(-350.388 -332.226)" fill="#2e2e2d"/>
      <path id="Path_254" data-name="Path 254" d="M511.042,344.7a11.175,11.175,0,0,1-2.656.3,7.7,7.7,0,0,1-2.744-.474,6.307,6.307,0,0,1-2.157-1.333,6.048,6.048,0,0,1-1.411-2.06,7.292,7.292,0,0,1,.008-5.374,6.015,6.015,0,0,1,1.429-2.061,6.341,6.341,0,0,1,2.14-1.307,7.547,7.547,0,0,1,2.648-.455,8.158,8.158,0,0,1,2.735.446,5.66,5.66,0,0,1,2.051,1.2l-1.893,2.157a3.29,3.29,0,0,0-1.157-.833,3.928,3.928,0,0,0-1.631-.324,3.611,3.611,0,0,0-1.456.289,3.508,3.508,0,0,0-1.157.806,3.673,3.673,0,0,0-.763,1.228,4.3,4.3,0,0,0-.272,1.552,4.851,4.851,0,0,0,.246,1.578,3.4,3.4,0,0,0,.727,1.236,3.315,3.315,0,0,0,1.193.806,4.26,4.26,0,0,0,1.622.289,6.056,6.056,0,0,0,1-.078,3.754,3.754,0,0,0,.876-.255v-2.262h-2.367v-2.42h5.12v6.575A9.536,9.536,0,0,1,511.042,344.7Z" transform="translate(-362.336 -331.935)" fill="#2e2e2d"/>
      <path id="Path_255" data-name="Path 255" d="M532.842,344.973V332.559h8.346v2.524h-5.453v2.35h5.155v2.4h-5.155v2.577H541.5v2.56Z" transform="translate(-376.921 -332.226)" fill="#2e2e2d"/>
      <path id="Path_256" data-name="Path 256" d="M564.358,344.973l-2.7-4.927h-1.022v4.927h-2.928V332.559h4.734a8.268,8.268,0,0,1,1.745.184,4.563,4.563,0,0,1,1.525.622,3.256,3.256,0,0,1,1.078,1.158,3.616,3.616,0,0,1,.4,1.789,3.3,3.3,0,0,1-.684,2.122,3.727,3.727,0,0,1-1.894,1.228l3.244,5.313Zm-.122-8.609a1.245,1.245,0,0,0-.185-.71,1.274,1.274,0,0,0-.476-.421,2.106,2.106,0,0,0-.652-.2,4.889,4.889,0,0,0-.7-.052h-1.6v2.894h1.428a4.772,4.772,0,0,0,.758-.062,2.4,2.4,0,0,0,.7-.219,1.271,1.271,0,0,0,.723-1.227Z" transform="translate(-388.517 -332.226)" fill="#2e2e2d"/>
      <path id="Path_257" data-name="Path 257" d="M589.03,339.713v5.26h-3v-5.26l-4.664-7.154H585l2.648,4.594,2.648-4.594H593.8Z" transform="translate(-399.547 -332.226)" fill="#2e2e2d"/>
    </g>
    <g id="Group_136" data-name="Group 136" transform="translate(181.427 199.943)">
      <path id="Path_258" data-name="Path 258" d="M195.555,254.723c-5.641-1.411-8.069-3.761-8.069-7.757,0-3.6,1.88-7.049,6.973-7.049,4.857,0,8.3,6.268,9.791,10.34h.471c0-3.918,0-5.562-.078-6.424-.157-1.957-1.018-3.289-3.682-3.994a20.962,20.962,0,0,0-5.8-.706c-8.067,0-13,4.466-13,10.576,0,6.344,4.073,8.851,10.967,10.577,4.857,1.173,7.991,3.21,7.991,7.362,0,4.309-2.821,7.757-8.227,7.757-5.64,0-9.635-6.661-10.576-11.752h-.47a60.4,60.4,0,0,0-.391,7.6c.157,2.118,1.175,3.291,4.073,4.153a28.306,28.306,0,0,0,6.973.941c7.519,0,13.866-4.153,13.866-10.891C206.366,259.813,202.919,256.524,195.555,254.723Z" transform="translate(-181.427 -218.216)" fill="#2e2e2d"/>
      <path id="Path_259" data-name="Path 259" d="M318.361,218.325a4.248,4.248,0,0,0,4.309-4.309,4.309,4.309,0,1,0-8.618,0A4.248,4.248,0,0,0,318.361,218.325Z" transform="translate(-243.267 -204.46)" fill="#2e2e2d"/>
      <path id="Path_260" data-name="Path 260" d="M324.026,247.73v-13c0-9.244-3.368-13.474-10.029-13.474a17.763,17.763,0,0,0-4.543.706c-2.585,1.568-5.327,3.6-7.521,5.25a56.507,56.507,0,0,1,.393-5.877l-.157-.234c-3.918,1.409-8.46,2.9-12.378,3.994l.079.314,4.621,1.175c.863,1.253,1.568,2.741,1.568,8.46v12.612c0,7.207-1.568,8.853-6.268,9.244h0c-5.483-.548-6.189-1.8-6.189-10.653V228.773a62.807,62.807,0,0,1,.313-7.443l-.155-.236c-3.134,1.175-7.678,2.743-12.378,4l.078.312,4.622,1.175c1.177,1.566,1.567,3.918,1.567,8.382v11.36c0,8.828-1.016,10.1-6.383,10.57-3.586-.32-6.252-2.143-12.262-12.217a93.566,93.566,0,0,1-6.582-13.708l3.055-2.977c3.761-3.525,7.679-5.405,11.987-5.641v-.47c-2.664.078-4.545.157-7.286.157-3.055,0-5.014,0-8.069-.157v.47c3.915.47,4.778,2.82,2.035,5.641l-10.81,11.046V212.791c0-4.935.078-10.183.314-12.613l-.157-.234c-4.075,1.33-7.991,2.5-12.378,3.682l.078.313,4.621,1.175c.863,1.254,1.568,2.743,1.568,8.461v34.079c0,7.207-1.568,8.853-6.267,9.242h-.007v.552h17.321V256.9h0c-4.935-.625-5.093-2.036-5.093-9.321V239.9l4.7-4.387a59.348,59.348,0,0,0,4.23,9.716,38.282,38.282,0,0,0,5.719,8.539c2.35,2.349,5.172,3.68,10.262,3.68.267,0,.566,0,.877,0H307.1V256.9c-4.936-.627-5.093-2.037-5.093-9.323v-19.74a42.7,42.7,0,0,1,5.641-2.9c6.816,0,10.34,2.116,10.34,10.733v11.907c0,7.285-.86,8.853-5.407,9.323h0v.544h17V256.9h0C325.436,256.426,324.026,255.017,324.026,247.73Z" transform="translate(-204.591 -199.944)" fill="#2e2e2d"/>
    </g>
    <path id="Path_261" data-name="Path 261" d="M471.276,266.522V252.89c0-9.4-3.682-13.16-9.95-13.16a16.576,16.576,0,0,0-4.621.7,81.291,81.291,0,0,0-7.209,5.092c-1.488-3.915-4.151-5.8-8.067-5.8a17.049,17.049,0,0,0-4.23.7c-2.507,1.489-5.093,3.448-7.521,5.25a57,57,0,0,1,.391-5.875l-.155-.236c-3.917,1.411-8.462,2.9-12.378,3.994l.078.314,4.622,1.175c.863,1.253,1.568,2.741,1.568,8.46v12.926c0,7.13-1.8,8.539-6.268,8.93h0v.544h17.157v-.544h0c-4.7-.627-4.935-1.8-4.935-9.008V246.31a42.54,42.54,0,0,1,5.64-2.9c6.032,0,9.087,2.35,9.087,10.889v11.83c0,6.894-.157,8.694-4.857,9.242h0v.544h15.823v-.544h0c-4.385-.548-4.933-2.114-4.933-9.087V252.969a28.539,28.539,0,0,0-.863-6.895,41.106,41.106,0,0,1,5.248-2.662c6.973,0,10.342,2.271,10.342,10.811v12.142c0,7.208-.862,8.539-5.171,9.008h0v.544h16.765v-.544h0C472.92,274.9,471.276,273.729,471.276,266.522Z" transform="translate(-110.092 -18.479)" fill="#003672"/>
    <path id="Path_262" data-name="Path 262" d="M549.05,272.506c-7.443-.157-13.238-5.25-12.848-18.333h20.212l.706-.627c.155-7.912-3.213-14.413-12.064-14.413-8.617,0-15.042,7.754-15.042,19.036,0,12.69,6.659,18.958,17.626,18.174a79.61,79.61,0,0,0,10.107-4.935l-.235-.706A16.889,16.889,0,0,1,549.05,272.506Zm-4.78-32.59c4.544,0,6.66,6.423,6.66,13.317l-14.728.312C536.281,245.791,539.336,239.917,544.27,239.917Z" transform="translate(-162.538 -18.274)" fill="#003672"/>
    <path id="Path_263" data-name="Path 263" d="M626.522,254.309h-3.055c-3.448,0-4.387-1.88-4.387-9.4V210.754c0-3.291.078-8.226.314-10.576l-.157-.236c-4.075,1.332-7.99,2.507-12.378,3.682l.079.314,4.623,1.175c.86,1.254,1.566,2.741,1.566,8.461v8.774a17.341,17.341,0,0,0-6.973-1.253c-11.594,0-17.938,8.615-17.626,20.133.312,10.811,6.189,16.608,12.612,16.608a18.63,18.63,0,0,0,3.527-.393,69.1,69.1,0,0,0,8.539-5.875,7.694,7.694,0,0,0,1.1,4.23,4.895,4.895,0,0,0,3.6,2.193l8.7-3.368Zm-13.4-3.289a32.9,32.9,0,0,1-6.58,3.368c-8.617-.079-11.2-7.207-11.516-14.65-.393-9.166,2.82-18.019,10.184-18.019a7.618,7.618,0,0,1,7.912,7.757Z" transform="translate(-189.816 0)" fill="#003672"/>
  </g>
</svg>
