<svg xmlns="http://www.w3.org/2000/svg" xmlns:xlink="http://www.w3.org/1999/xlink" width="79.403" height="24.57" viewBox="0 0 79.403 24.57">
  <defs>
    <clipPath id="clip-path">
      <rect id="Rectangle_726" data-name="Rectangle 726" width="79.403" height="24.57" fill="#fff"/>
    </clipPath>
  </defs>
  <g id="Group_305" data-name="Group 305" clip-path="url(#clip-path)">
    <path id="Path_342" data-name="Path 342" d="M8.282.186s.129,0,.129,0l.343,8.287-.116.007C8.4,7.542,7.754.254,5.236.254,3.3.254,2.65,9.191,2.65,12.185c0,3.878.478,12.015,2.65,12.015,1.047,0,1.616-1.794,1.616-4.162V12.477H5.754v-.3h4.691v.3H9.269V24.325s-.134,0-.135,0c-.17-.493-.195-1.508-.958-1.508-.846,0-1.754,1.753-2.93,1.749C1.355,24.556,0,17.369,0,12.187,0,7.894,1.568,0,5.242,0A1.648,1.648,0,0,1,6.783.871c.36.521,1.041.64,1.333-.027A3.219,3.219,0,0,0,8.282.186" transform="translate(0 -0.001)" fill="#fff"/>
    <path id="Path_343" data-name="Path 343" d="M162.71,24.457V1.186h-1.041V.9H166.1v.284h-1.046l.007,23.272H166.1v.288h-4.432v-.288h1.041V1.186" transform="translate(-101.655 -0.567)" fill="#fff"/>
    <path id="Path_344" data-name="Path 344" d="M125.611,24.456h2.777c1.3-.052,2.9-1.268,2.9-4.66,0-.647.008-1.323.008-2h.247v6.945l-8.412,0L128.84,1.188h-2.663c-1.685,0-2.614,2.549-2.614,4.893,0,.6-.018,1.766-.018,1.766l-.235,0V.9h8.172Z" transform="translate(-77.422 -0.568)" fill="#fff"/>
    <path id="Path_345" data-name="Path 345" d="M47.885,1.194V12.754A2.291,2.291,0,0,0,50,11.736c.771-.995,1.077-3.5,1.077-5.372,0-1.995-1-5.175-2.28-5.175ZM44.512.907h4.956c2.373,0,3.912,2.637,3.912,5.8s-1.295,6.1-3.29,6.1c-.267,0-.242.16,0,.16,1.2,0,2.094,1.368,2.275,1.732.731,1.471.227,8.239.959,8.908.617.564,1.07-.318,1.151-.455l.075.055c-.012.062-.54,1.807-1.875,1.807-1.109,0-1.67-1.363-1.83-2.216-.259-1.39-.175-5.642-.317-6.5-.123-.745-.458-2.971-1.505-3.165a4.616,4.616,0,0,0-1.137-.084s0,11.4,0,11.4h1.046v.293H44.37v-.293h1.172l0-23.263H44.512Z" transform="translate(-27.899 -0.57)" fill="#fff"/>
    <path id="Path_346" data-name="Path 346" d="M85.427,16.919h3.326l-1.6-9.325Zm-1.66,6.966L88.25,0l4.143,23.886.942,0v.288h-4.31v-.293h.944L88.8,17.222H85.362l-1.217,6.667h1.21v.286H82.746v-.283Z" transform="translate(-52.03 0)" fill="#fff"/>
    <path id="Path_347" data-name="Path 347" d="M188.056,16.919h3.326l-1.6-9.325Zm-1.66,6.966L190.878,0l4.143,23.886.941,0v.288h-4.31v-.293h.944l-1.173-6.661H187.99l-1.217,6.667h1.21v.285h-2.609v-.283Z" transform="translate(-116.56 0)" fill="#fff"/>
  </g>
</svg>
