<svg xmlns="http://www.w3.org/2000/svg" xmlns:xlink="http://www.w3.org/1999/xlink" width="163.203" height="41.747" viewBox="0 0 163.203 41.747">
  <defs>
    <clipPath id="clip-path">
      <rect id="Rectangle_722" data-name="Rectangle 722" width="163.203" height="41.747" fill="#fff"/>
    </clipPath>
  </defs>
  <g id="Group_297" data-name="Group 297" clip-path="url(#clip-path)">
    <path id="Path_320" data-name="Path 320" d="M300.287,1.692c-9.512.068-17.293,10.64-17.293,19.861,0,9.7,5.7,21.541,17.293,21.5s17.6-12.782,17.6-21.5c0-9.632-8.092-19.929-17.6-19.861m0,.362c7.961,0,10.109,8.793,10.109,19.5,0,14.127-2.591,21.1-10.109,21.084s-9.964-5.718-9.964-21.084c0-9.626,2-19.5,9.964-19.5" transform="translate(-252.687 -1.511)" fill="#fff"/>
    <path id="Path_321" data-name="Path 321" d="M638.177,20.3C638.134,9.811,646.531.517,653.64.056c2.568-.182,5.868.994,7.8,1.832,1.4.608,4.256-.272,4.763-1.887h.277V14.293H666.2c0-.609-2.647-13.877-12.558-13.877-7.321,0-8.028,12.872-8.028,19.888s.213,20.9,8.756,20.9c4.138,0,7.2-1.811,8-5.473V24.6h-3.474v-.474h13.465V24.6h-3.321V40.88h-.27a3.215,3.215,0,0,0-3.28-2.341c-3.5.01-6.8,3.052-10.829,3.015-10.646-.1-16.436-10.758-16.478-21.25" transform="translate(-569.832)" fill="#fff"/>
    <path id="Path_322" data-name="Path 322" d="M4.192,10.912H0v-.471H14.686v.471H11L21.5,39.41c3.281-10.1,5.823-17.57,9.244-28.5H27.1v-.471H34.85v.471H31.319L18.565,50.672Z" transform="translate(0 -9.323)" fill="#fff"/>
    <path id="Path_323" data-name="Path 323" d="M942.7,40.729l-.066-30.071h-3.99v-.45h14.7v.45h-3.988l.089,32.972c.883,3.775,2.453,6.64,7.816,6.683a10.335,10.335,0,0,0,10.364-7.566V10.657h-4.565V10.22h37.364l.078,14.435h-.359c-.693-9.32-4.289-12.843-10.579-13.871-2.164-.354-4.435-.091-7.305-.114V29.1c2.5.193,5.162.035,6.956-1.506,1.632-1.4,2.093-4.639,2.213-5.954h.316V37.676H991.4c-.1,0-.23-4.025-2.187-5.935a7.607,7.607,0,0,0-6.956-1.937v19.68c3.5,0,6.292.3,8.715-.368,7.367-2.02,9.961-8.235,9.941-14.468h.41v15.3H972.013v-.466h3.314V10.657h-7.16V42.746c-.811,3.07-3.777,8.15-11.378,8.115C949.722,50.829,942.712,47.642,942.7,40.729Z" transform="translate(-838.118 -9.114)" fill="#fff"/>
  </g>
</svg>
